%!PS-Adobe-2.0 EPSF-2.0
%%Title: lab7prob1.fig
%%Creator: fig2dev Version 3.2 Patchlevel 5
%%CreationDate: Tue Nov  6 06:01:15 2012
%%For: rroos@aldenv27.local (rroos)
%%BoundingBox: 0 0 100 132
%Magnification: 1.0000
%%EndComments
/$F2psDict 200 dict def
$F2psDict begin
$F2psDict /mtrx matrix put
/col-1 {0 setgray} bind def
/col0 {0.000 0.000 0.000 srgb} bind def
/col1 {0.000 0.000 1.000 srgb} bind def
/col2 {0.000 1.000 0.000 srgb} bind def
/col3 {0.000 1.000 1.000 srgb} bind def
/col4 {1.000 0.000 0.000 srgb} bind def
/col5 {1.000 0.000 1.000 srgb} bind def
/col6 {1.000 1.000 0.000 srgb} bind def
/col7 {1.000 1.000 1.000 srgb} bind def
/col8 {0.000 0.000 0.560 srgb} bind def
/col9 {0.000 0.000 0.690 srgb} bind def
/col10 {0.000 0.000 0.820 srgb} bind def
/col11 {0.530 0.810 1.000 srgb} bind def
/col12 {0.000 0.560 0.000 srgb} bind def
/col13 {0.000 0.690 0.000 srgb} bind def
/col14 {0.000 0.820 0.000 srgb} bind def
/col15 {0.000 0.560 0.560 srgb} bind def
/col16 {0.000 0.690 0.690 srgb} bind def
/col17 {0.000 0.820 0.820 srgb} bind def
/col18 {0.560 0.000 0.000 srgb} bind def
/col19 {0.690 0.000 0.000 srgb} bind def
/col20 {0.820 0.000 0.000 srgb} bind def
/col21 {0.560 0.000 0.560 srgb} bind def
/col22 {0.690 0.000 0.690 srgb} bind def
/col23 {0.820 0.000 0.820 srgb} bind def
/col24 {0.500 0.190 0.000 srgb} bind def
/col25 {0.630 0.250 0.000 srgb} bind def
/col26 {0.750 0.380 0.000 srgb} bind def
/col27 {1.000 0.500 0.500 srgb} bind def
/col28 {1.000 0.630 0.630 srgb} bind def
/col29 {1.000 0.750 0.750 srgb} bind def
/col30 {1.000 0.880 0.880 srgb} bind def
/col31 {1.000 0.840 0.000 srgb} bind def

end
save
newpath 0 132 moveto 0 0 lineto 100 0 lineto 100 132 lineto closepath clip newpath
-40.0 153.5 translate
1 -1 scale

/cp {closepath} bind def
/ef {eofill} bind def
/gr {grestore} bind def
/gs {gsave} bind def
/sa {save} bind def
/rs {restore} bind def
/l {lineto} bind def
/m {moveto} bind def
/rm {rmoveto} bind def
/n {newpath} bind def
/s {stroke} bind def
/sh {show} bind def
/slc {setlinecap} bind def
/slj {setlinejoin} bind def
/slw {setlinewidth} bind def
/srgb {setrgbcolor} bind def
/rot {rotate} bind def
/sc {scale} bind def
/sd {setdash} bind def
/ff {findfont} bind def
/sf {setfont} bind def
/scf {scalefont} bind def
/sw {stringwidth} bind def
/tr {translate} bind def
/tnt {dup dup currentrgbcolor
  4 -2 roll dup 1 exch sub 3 -1 roll mul add
  4 -2 roll dup 1 exch sub 3 -1 roll mul add
  4 -2 roll dup 1 exch sub 3 -1 roll mul add srgb}
  bind def
/shd {dup dup currentrgbcolor 4 -2 roll mul 4 -2 roll mul
  4 -2 roll mul srgb} bind def
 /DrawEllipse {
	/endangle exch def
	/startangle exch def
	/yrad exch def
	/xrad exch def
	/y exch def
	/x exch def
	/savematrix mtrx currentmatrix def
	x y tr xrad yrad sc 0 0 1 startangle endangle arc
	closepath
	savematrix setmatrix
	} def

/$F2psBegin {$F2psDict begin /$F2psEnteredState save def} def
/$F2psEnd {$F2psEnteredState restore end} def

$F2psBegin
10 setmiterlimit
0 slj 0 slc
 0.06000 0.06000 sc
%
% Fig objects follow
%
% 
% here starts figure with depth 50
/Helvetica-Bold ff 200.00 scf sf
2025 1575 m
gs 1 -1 sc (2) col0 sh gr
% Arc
7.500 slw
0 slc
gs  clippath
940 1892 m 928 1708 l 869 1712 l 881 1896 l 881 1896 l 901 1745 l 940 1892 l cp
eoclip
n 1410.6 1756.7 511.6 105.3685 -176.4438 arc
gs col0 s gr
 gr

% arrowhead
0 slj
n 940 1892 m 901 1745 l 881 1896 l 908 1864 l 940 1892 l 
 cp gs 0.00 setgray ef gr  col0 s
% Ellipse
n 900 600 225 225 0 360 DrawEllipse gs col0 s gr

% Ellipse
n 2100 600 225 225 0 360 DrawEllipse gs col0 s gr

% Ellipse
n 900 1500 225 225 0 360 DrawEllipse gs col0 s gr

% Ellipse
n 2100 1500 225 225 0 360 DrawEllipse gs col0 s gr

% Ellipse
n 1500 2325 225 225 0 360 DrawEllipse gs col0 s gr

% Polyline
gs  clippath
1705 630 m 1890 630 l 1890 570 l 1705 570 l 1705 570 l 1855 600 l 1705 630 l cp
eoclip
n 1125 600 m
 1875 600 l gs col0 s gr gr

% arrowhead
n 1705 630 m 1855 600 l 1705 570 l 1735 600 l 1705 630 l 
 cp gs 0.00 setgray ef gr  col0 s
% Polyline
gs  clippath
2130 995 m 2130 810 l 2070 810 l 2070 995 l 2070 995 l 2100 845 l 2130 995 l cp
eoclip
n 2100 1275 m
 2100 825 l gs col0 s gr gr

% arrowhead
n 2130 995 m 2100 845 l 2070 995 l 2100 965 l 2130 995 l 
 cp gs 0.00 setgray ef gr  col0 s
% Polyline
gs  clippath
1867 1876 m 1982 1732 l 1935 1694 l 1820 1839 l 1820 1839 l 1938 1741 l 1867 1876 l cp
eoclip
n 1650 2100 m
 1950 1725 l gs col0 s gr gr

% arrowhead
n 1867 1876 m 1938 1741 l 1820 1839 l 1863 1834 l 1867 1876 l 
 cp gs 0.00 setgray ef gr  col0 s
% Polyline
gs  clippath
1528 1929 m 1466 2104 l 1523 2124 l 1585 1949 l 1585 1949 l 1507 2081 l 1528 1929 l cp
eoclip
n 1950 825 m
 1500 2100 l gs col0 s gr gr

% arrowhead
n 1528 1929 m 1507 2081 l 1585 1949 l 1546 1967 l 1528 1929 l 
 cp gs 0.00 setgray ef gr  col0 s
% Polyline
gs  clippath
930 995 m 930 810 l 870 810 l 870 995 l 870 995 l 900 845 l 930 995 l cp
eoclip
n 900 1275 m
 900 825 l gs col0 s gr gr

% arrowhead
n 930 995 m 900 845 l 870 995 l 900 965 l 930 995 l 
 cp gs 0.00 setgray ef gr  col0 s
% Polyline
gs  clippath
1239 1220 m 1094 1335 l 1132 1382 l 1276 1267 l 1276 1267 l 1141 1338 l 1239 1220 l cp
eoclip
n 1875 750 m
 1125 1350 l gs col0 s gr gr

% arrowhead
n 1239 1220 m 1141 1338 l 1276 1267 l 1234 1263 l 1239 1220 l 
 cp gs 0.00 setgray ef gr  col0 s
/Helvetica-Bold ff 200.00 scf sf
825 1575 m
gs 1 -1 sc (3) col0 sh gr
/Helvetica-Bold ff 200.00 scf sf
1425 2400 m
gs 1 -1 sc (4) col0 sh gr
/Helvetica-Bold ff 200.00 scf sf
2025 675 m
gs 1 -1 sc (1) col0 sh gr
/Helvetica-Bold ff 200.00 scf sf
825 675 m
gs 1 -1 sc (0) col0 sh gr
% Arc
gs  clippath
1311 1970 m 1407 2128 l 1458 2097 l 1363 1939 l 1363 1939 l 1415 2083 l 1311 1970 l cp
eoclip
n 112.5 2812.5 1493.4 -51.1155 -28.4956 arc
gs col0 s gr
 gr

% arrowhead
n 1311 1970 m 1415 2083 l 1363 1939 l 1353 1980 l 1311 1970 l 
 cp gs 0.00 setgray ef gr  col0 s
% here ends figure;
$F2psEnd
rs
showpage
%%Trailer
%EOF
