%!PS-Adobe-2.0 EPSF-2.0
%%Title: quizgraph2.fig
%%Creator: fig2dev Version 3.2 Patchlevel 5
%%CreationDate: Mon Nov 12 06:10:38 2012
%%For: rroos@aldenv27.local (rroos)
%%BoundingBox: 0 0 137 115
%Magnification: 1.0000
%%EndComments
/$F2psDict 200 dict def
$F2psDict begin
$F2psDict /mtrx matrix put
/col-1 {0 setgray} bind def
/col0 {0.000 0.000 0.000 srgb} bind def
/col1 {0.000 0.000 1.000 srgb} bind def
/col2 {0.000 1.000 0.000 srgb} bind def
/col3 {0.000 1.000 1.000 srgb} bind def
/col4 {1.000 0.000 0.000 srgb} bind def
/col5 {1.000 0.000 1.000 srgb} bind def
/col6 {1.000 1.000 0.000 srgb} bind def
/col7 {1.000 1.000 1.000 srgb} bind def
/col8 {0.000 0.000 0.560 srgb} bind def
/col9 {0.000 0.000 0.690 srgb} bind def
/col10 {0.000 0.000 0.820 srgb} bind def
/col11 {0.530 0.810 1.000 srgb} bind def
/col12 {0.000 0.560 0.000 srgb} bind def
/col13 {0.000 0.690 0.000 srgb} bind def
/col14 {0.000 0.820 0.000 srgb} bind def
/col15 {0.000 0.560 0.560 srgb} bind def
/col16 {0.000 0.690 0.690 srgb} bind def
/col17 {0.000 0.820 0.820 srgb} bind def
/col18 {0.560 0.000 0.000 srgb} bind def
/col19 {0.690 0.000 0.000 srgb} bind def
/col20 {0.820 0.000 0.000 srgb} bind def
/col21 {0.560 0.000 0.560 srgb} bind def
/col22 {0.690 0.000 0.690 srgb} bind def
/col23 {0.820 0.000 0.820 srgb} bind def
/col24 {0.500 0.190 0.000 srgb} bind def
/col25 {0.630 0.250 0.000 srgb} bind def
/col26 {0.750 0.380 0.000 srgb} bind def
/col27 {1.000 0.500 0.500 srgb} bind def
/col28 {1.000 0.630 0.630 srgb} bind def
/col29 {1.000 0.750 0.750 srgb} bind def
/col30 {1.000 0.880 0.880 srgb} bind def
/col31 {1.000 0.840 0.000 srgb} bind def

end
save
newpath 0 115 moveto 0 0 lineto 137 0 lineto 137 115 lineto closepath clip newpath
-21.7 136.5 translate
1 -1 scale

/cp {closepath} bind def
/ef {eofill} bind def
/gr {grestore} bind def
/gs {gsave} bind def
/sa {save} bind def
/rs {restore} bind def
/l {lineto} bind def
/m {moveto} bind def
/rm {rmoveto} bind def
/n {newpath} bind def
/s {stroke} bind def
/sh {show} bind def
/slc {setlinecap} bind def
/slj {setlinejoin} bind def
/slw {setlinewidth} bind def
/srgb {setrgbcolor} bind def
/rot {rotate} bind def
/sc {scale} bind def
/sd {setdash} bind def
/ff {findfont} bind def
/sf {setfont} bind def
/scf {scalefont} bind def
/sw {stringwidth} bind def
/tr {translate} bind def
/tnt {dup dup currentrgbcolor
  4 -2 roll dup 1 exch sub 3 -1 roll mul add
  4 -2 roll dup 1 exch sub 3 -1 roll mul add
  4 -2 roll dup 1 exch sub 3 -1 roll mul add srgb}
  bind def
/shd {dup dup currentrgbcolor 4 -2 roll mul 4 -2 roll mul
  4 -2 roll mul srgb} bind def
 /DrawEllipse {
	/endangle exch def
	/startangle exch def
	/yrad exch def
	/xrad exch def
	/y exch def
	/x exch def
	/savematrix mtrx currentmatrix def
	x y tr xrad yrad sc 0 0 1 startangle endangle arc
	closepath
	savematrix setmatrix
	} def

/$F2psBegin {$F2psDict begin /$F2psEnteredState save def} def
/$F2psEnd {$F2psEnteredState restore end} def

$F2psBegin
10 setmiterlimit
0 slj 0 slc
 0.06000 0.06000 sc
%
% Fig objects follow
%
% 
% here starts figure with depth 50
/Times-Roman ff 200.00 scf sf
2325 2100 m
gs 1 -1 sc (7) col0 sh gr
% Arc
7.500 slw
0 slc
gs  clippath
2104 2267 m 2275 2197 l 2252 2141 l 2081 2211 l 2081 2211 l 2232 2183 l 2104 2267 l cp
eoclip
n 1950.0 1612.5 637.5 118.0725 61.9275 arcn
gs col0 s gr
 gr

% arrowhead
0 slj
n 2104 2267 m 2232 2183 l 2081 2211 l 2120 2228 l 2104 2267 l 
 cp gs 0.00 setgray ef gr  col0 s
% Arc
gs  clippath
2533 1637 m 2441 1798 l 2493 1827 l 2585 1667 l 2585 1667 l 2485 1783 l 2533 1637 l cp
eoclip
n 1762.5 1312.5 863.3 -34.3803 34.3803 arc
gs col0 s gr
 gr

% arrowhead
n 2533 1637 m 2485 1783 l 2585 1667 l 2544 1678 l 2533 1637 l 
 cp gs 0.00 setgray ef gr  col0 s
% Ellipse
n 600 600 225 225 0 360 DrawEllipse gs col0 s gr

% Ellipse
n 1500 600 225 225 0 360 DrawEllipse gs col0 s gr

% Ellipse
n 2400 600 225 225 0 360 DrawEllipse gs col0 s gr

% Ellipse
n 1050 1275 225 225 0 360 DrawEllipse gs col0 s gr

% Ellipse
n 1950 1275 225 225 0 360 DrawEllipse gs col0 s gr

% Ellipse
n 1500 2025 225 225 0 360 DrawEllipse gs col0 s gr

% Ellipse
n 600 2025 225 225 0 360 DrawEllipse gs col0 s gr

% Ellipse
n 2400 2025 225 225 0 360 DrawEllipse gs col0 s gr

% Polyline
gs  clippath
1105 630 m 1290 630 l 1290 570 l 1105 570 l 1105 570 l 1255 600 l 1105 630 l cp
eoclip
n 825 600 m
 1275 600 l gs col0 s gr gr

% arrowhead
n 1105 630 m 1255 600 l 1105 570 l 1135 600 l 1105 630 l 
 cp gs 0.00 setgray ef gr  col0 s
% Polyline
gs  clippath
774 1007 m 885 1155 l 933 1119 l 822 971 l 822 971 l 888 1109 l 774 1007 l cp
eoclip
n 675 825 m
 900 1125 l gs col0 s gr gr

% arrowhead
n 774 1007 m 888 1109 l 822 971 l 816 1013 l 774 1007 l 
 cp gs 0.00 setgray ef gr  col0 s
% Polyline
gs  clippath
1234 956 m 1166 1127 l 1222 1150 l 1290 978 l 1290 978 l 1207 1107 l 1234 956 l cp
eoclip
n 1350 750 m
 1200 1125 l gs col0 s gr gr

% arrowhead
n 1234 956 m 1207 1107 l 1290 978 l 1251 995 l 1234 956 l 
 cp gs 0.00 setgray ef gr  col0 s
% Polyline
gs  clippath
1530 995 m 1530 810 l 1470 810 l 1470 995 l 1470 995 l 1500 845 l 1530 995 l cp
eoclip
n 1500 825 m
 1500 1800 l gs col0 s gr gr

% arrowhead
n 1530 995 m 1500 845 l 1470 995 l 1500 965 l 1530 995 l 
 cp gs 0.00 setgray ef gr  col0 s
% Polyline
gs  clippath
570 1630 m 570 1815 l 630 1815 l 630 1630 l 630 1630 l 600 1780 l 570 1630 l cp
eoclip
n 600 825 m
 600 1800 l gs col0 s gr gr

% arrowhead
n 570 1630 m 600 1780 l 630 1630 l 600 1660 l 570 1630 l 
 cp gs 0.00 setgray ef gr  col0 s
% Polyline
gs  clippath
1224 1682 m 1335 1830 l 1383 1794 l 1272 1646 l 1272 1646 l 1338 1784 l 1224 1682 l cp
eoclip
n 1125 1500 m
 1350 1800 l gs col0 s gr gr

% arrowhead
n 1224 1682 m 1338 1784 l 1272 1646 l 1266 1688 l 1224 1682 l 
 cp gs 0.00 setgray ef gr  col0 s
% Polyline
gs  clippath
1697 911 m 1779 1076 l 1833 1050 l 1750 884 l 1750 884 l 1791 1032 l 1697 911 l cp
eoclip
n 1650 750 m
 1800 1050 l gs col0 s gr gr

% arrowhead
n 1697 911 m 1791 1032 l 1750 884 l 1737 924 l 1697 911 l 
 cp gs 0.00 setgray ef gr  col0 s
% Polyline
gs  clippath
1895 1995 m 1710 1995 l 1710 2055 l 1895 2055 l 1895 2055 l 1745 2025 l 1895 1995 l cp
eoclip
n 1725 2025 m
 2175 2025 l gs col0 s gr gr

% arrowhead
n 1895 1995 m 1745 2025 l 1895 2055 l 1865 2025 l 1895 1995 l 
 cp gs 0.00 setgray ef gr  col0 s
% Polyline
gs  clippath
2430 995 m 2430 810 l 2370 810 l 2370 995 l 2370 995 l 2400 845 l 2430 995 l cp
eoclip
n 2400 1800 m
 2400 825 l gs col0 s gr gr

% arrowhead
n 2430 995 m 2400 845 l 2370 995 l 2400 965 l 2430 995 l 
 cp gs 0.00 setgray ef gr  col0 s
% Polyline
gs  clippath
2226 1618 m 2115 1470 l 2067 1506 l 2178 1654 l 2178 1654 l 2112 1516 l 2226 1618 l cp
eoclip
n 2100 1500 m
 2325 1800 l gs col0 s gr gr

% arrowhead
n 2226 1618 m 2112 1516 l 2178 1654 l 2184 1612 l 2226 1618 l 
 cp gs 0.00 setgray ef gr  col0 s
% Polyline
gs  clippath
2188 911 m 2283 752 l 2231 721 l 2137 880 l 2137 880 l 2240 767 l 2188 911 l cp
eoclip
n 2025 1125 m
 2250 750 l gs col0 s gr gr

% arrowhead
n 2188 911 m 2240 767 l 2137 880 l 2178 869 l 2188 911 l 
 cp gs 0.00 setgray ef gr  col0 s
/Times-Roman ff 200.00 scf sf
525 675 m
gs 1 -1 sc (0) col0 sh gr
/Times-Roman ff 200.00 scf sf
975 1350 m
gs 1 -1 sc (1) col0 sh gr
/Times-Roman ff 200.00 scf sf
525 2100 m
gs 1 -1 sc (2) col0 sh gr
/Times-Roman ff 200.00 scf sf
1425 2100 m
gs 1 -1 sc (3) col0 sh gr
/Times-Roman ff 200.00 scf sf
1875 1350 m
gs 1 -1 sc (4) col0 sh gr
/Times-Roman ff 200.00 scf sf
1425 675 m
gs 1 -1 sc (5) col0 sh gr
/Times-Roman ff 200.00 scf sf
2325 675 m
gs 1 -1 sc (6) col0 sh gr
% Arc
gs  clippath
438 921 m 482 742 l 424 728 l 380 907 l 380 907 l 445 769 l 438 921 l cp
eoclip
n 2437.5 1312.5 2065.6 164.1975 -164.1975 arc
gs col0 s gr
 gr

% arrowhead
n 438 921 m 445 769 l 380 907 l 416 885 l 438 921 l 
 cp gs 0.00 setgray ef gr  col0 s
% here ends figure;
$F2psEnd
rs
showpage
%%Trailer
%EOF
