%!PS-Adobe-2.0 EPSF-2.0
%%Title: triangles.fig
%%Creator: fig2dev Version 3.2 Patchlevel 5
%%CreationDate: Tue Oct 30 12:33:07 2012
%%For: rroos@aldenv27.allegheny.edu (rroos)
%%BoundingBox: 0 0 208 208
%Magnification: 1.0000
%%EndComments
/$F2psDict 200 dict def
$F2psDict begin
$F2psDict /mtrx matrix put
/col-1 {0 setgray} bind def
/col0 {0.000 0.000 0.000 srgb} bind def
/col1 {0.000 0.000 1.000 srgb} bind def
/col2 {0.000 1.000 0.000 srgb} bind def
/col3 {0.000 1.000 1.000 srgb} bind def
/col4 {1.000 0.000 0.000 srgb} bind def
/col5 {1.000 0.000 1.000 srgb} bind def
/col6 {1.000 1.000 0.000 srgb} bind def
/col7 {1.000 1.000 1.000 srgb} bind def
/col8 {0.000 0.000 0.560 srgb} bind def
/col9 {0.000 0.000 0.690 srgb} bind def
/col10 {0.000 0.000 0.820 srgb} bind def
/col11 {0.530 0.810 1.000 srgb} bind def
/col12 {0.000 0.560 0.000 srgb} bind def
/col13 {0.000 0.690 0.000 srgb} bind def
/col14 {0.000 0.820 0.000 srgb} bind def
/col15 {0.000 0.560 0.560 srgb} bind def
/col16 {0.000 0.690 0.690 srgb} bind def
/col17 {0.000 0.820 0.820 srgb} bind def
/col18 {0.560 0.000 0.000 srgb} bind def
/col19 {0.690 0.000 0.000 srgb} bind def
/col20 {0.820 0.000 0.000 srgb} bind def
/col21 {0.560 0.000 0.560 srgb} bind def
/col22 {0.690 0.000 0.690 srgb} bind def
/col23 {0.820 0.000 0.820 srgb} bind def
/col24 {0.500 0.190 0.000 srgb} bind def
/col25 {0.630 0.250 0.000 srgb} bind def
/col26 {0.750 0.380 0.000 srgb} bind def
/col27 {1.000 0.500 0.500 srgb} bind def
/col28 {1.000 0.630 0.630 srgb} bind def
/col29 {1.000 0.750 0.750 srgb} bind def
/col30 {1.000 0.880 0.880 srgb} bind def
/col31 {1.000 0.840 0.000 srgb} bind def

end
save
newpath 0 208 moveto 0 0 lineto 208 0 lineto 208 208 lineto closepath clip newpath
-40.0 248.0 translate
1 -1 scale

/cp {closepath} bind def
/ef {eofill} bind def
/gr {grestore} bind def
/gs {gsave} bind def
/sa {save} bind def
/rs {restore} bind def
/l {lineto} bind def
/m {moveto} bind def
/rm {rmoveto} bind def
/n {newpath} bind def
/s {stroke} bind def
/sh {show} bind def
/slc {setlinecap} bind def
/slj {setlinejoin} bind def
/slw {setlinewidth} bind def
/srgb {setrgbcolor} bind def
/rot {rotate} bind def
/sc {scale} bind def
/sd {setdash} bind def
/ff {findfont} bind def
/sf {setfont} bind def
/scf {scalefont} bind def
/sw {stringwidth} bind def
/tr {translate} bind def
/tnt {dup dup currentrgbcolor
  4 -2 roll dup 1 exch sub 3 -1 roll mul add
  4 -2 roll dup 1 exch sub 3 -1 roll mul add
  4 -2 roll dup 1 exch sub 3 -1 roll mul add srgb}
  bind def
/shd {dup dup currentrgbcolor 4 -2 roll mul 4 -2 roll mul
  4 -2 roll mul srgb} bind def
 /DrawEllipse {
	/endangle exch def
	/startangle exch def
	/yrad exch def
	/xrad exch def
	/y exch def
	/x exch def
	/savematrix mtrx currentmatrix def
	x y tr xrad yrad sc 0 0 1 startangle endangle arc
	closepath
	savematrix setmatrix
	} def

/$F2psBegin {$F2psDict begin /$F2psEnteredState save def} def
/$F2psEnd {$F2psEnteredState restore end} def

$F2psBegin
10 setmiterlimit
0 slj 0 slc
 0.06000 0.06000 sc
%
% Fig objects follow
%
% 
% here starts figure with depth 50
/Helvetica-Bold ff 233.33 scf sf
2025 3375 m
gs 1 -1 sc (2) col0 sh gr
% Ellipse
7.500 slw
n 3900 3900 225 225 0 360 DrawEllipse gs col0 s gr

% Ellipse
n 3900 900 225 225 0 360 DrawEllipse gs col0 s gr

% Ellipse
n 900 900 225 225 0 360 DrawEllipse gs col0 s gr

% Ellipse
n 2700 1500 225 225 0 360 DrawEllipse gs col0 s gr

% Ellipse
n 1500 2100 225 225 0 360 DrawEllipse gs col0 s gr

% Ellipse
n 2100 3300 225 225 0 360 DrawEllipse gs col0 s gr

% Ellipse
n 3300 2700 225 225 0 360 DrawEllipse gs col0 s gr

% Polyline
0 slj
0 slc
n 1125 900 m
 3675 900 l gs col0 s gr 
% Polyline
n 3900 1125 m
 3900 3675 l gs col0 s gr 
% Polyline
n 3675 3900 m
 1125 3900 l gs col0 s gr 
% Polyline
n 900 3675 m
 900 1125 l gs col0 s gr 
% Polyline
n 1050 1125 m
 1425 1875 l gs col0 s gr 
% Polyline
n 1050 3750 m
 1875 3450 l gs col0 s gr 
% Polyline
n 3450 2925 m
 3825 3750 l gs col0 s gr 
% Polyline
n 3750 1050 m
 2925 1425 l gs col0 s gr 
% Polyline
n 2475 1650 m
 1725 1950 l gs col0 s gr 
% Polyline
n 1575 2325 m
 2025 3075 l gs col0 s gr 
% Polyline
n 2325 3225 m
 3150 2850 l gs col0 s gr 
% Polyline
n 3225 2475 m
 2775 1725 l gs col0 s gr 
% Polyline
n 2100 3075 m
 2625 1725 l gs col0 s gr 
% Polyline
n 3450 2475 m
 3825 1125 l gs col0 s gr 
% Polyline
n 975 3675 m
 1425 2325 l gs col0 s gr 
/Helvetica-Bold ff 233.33 scf sf
825 975 m
gs 1 -1 sc (0) col0 sh gr
/Helvetica-Bold ff 233.33 scf sf
1425 2175 m
gs 1 -1 sc (1) col0 sh gr
/Helvetica-Bold ff 233.33 scf sf
3825 3975 m
gs 1 -1 sc (3) col0 sh gr
/Helvetica-Bold ff 233.33 scf sf
825 3975 m
gs 1 -1 sc (4) col0 sh gr
/Helvetica-Bold ff 233.33 scf sf
3225 2775 m
gs 1 -1 sc (5) col0 sh gr
/Helvetica-Bold ff 233.33 scf sf
3900 975 m
gs 1 -1 sc (6) col0 sh gr
/Helvetica-Bold ff 233.33 scf sf
2625 1575 m
gs 1 -1 sc (7) col0 sh gr
% Ellipse
n 900 3900 225 225 0 360 DrawEllipse gs col0 s gr

% here ends figure;
$F2psEnd
rs
showpage
%%Trailer
%EOF
