\relax 
\@writefile{toc}{\contentsline {section}{\numberline {1}Algorithm as a Pseudo-code in Latex}{1}}
\newlabel{alg:max}{{1}{1}}
\@writefile{loa}{\contentsline {algorithm}{\numberline {1}{\ignorespaces Finding the maximum value }}{1}}
